{
  "info": {
    "count": 826,
    "pages": 42,
    "next": "https://rickandmortyapi.com/api/character?page=2",
    "prev": null
  },
  "results": [
    {
      "id": 1,
      "name": "Rick Sanchez",
      "status": "Alive",
      "species": "Human",
      "type": "",
      "gender": "Male",
      "image": "https://rickandmortyapi.com/api/character/avatar/1.jpeg"
    },
    {
      "id": 2,
      "name": "Morty Smith",
      "status": "Alive",
      "species": "Human",
      "type": "",
      "gender": "Male",
      "image": "https://rickandmortyapi.com/api/character/avatar/2.jpeg"
    },
    {
      "id": 3,
      "name": "Summer Smith",
      "status": "Alive",
      "species": "Human",
      "type": "",
      "gender": "Female",
      "image": "https://rickandmortyapi.com/api/character/avatar/3.jpeg"
    }
  ]
}
